{
    "swagger": "2.0",
    "info": {
        "title": "Konatra APIs",
        "version": "1.0.0"
    },
    "basePath": "/api/v1",
    "paths": {
        "/admin/permissions": {
            "get": {
                "tags": [
                    "Permission"
                ],
                "summary": "Get a listing of the Permissions.",
                "description": "Get all Permissions",
                "produces": [
                    "application/json"
                ],
                "responses": {
                    "200": {
                        "description": "successful operation",
                        "schema": {
                            "properties": {
                                "success": {
                                    "type": "boolean"
                                },
                                "data": {
                                    "type": "array",
                                    "items": {
                                        "$ref": "#/definitions/Permission"
                                    }
                                },
                                "message": {
                                    "type": "string"
                                }
                            },
                            "type": "object"
                        }
                    }
                }
            },
            "post": {
                "tags": [
                    "Permission"
                ],
                "summary": "Store a newly created Permission in storage",
                "description": "Store Permission",
                "produces": [
                    "application/json"
                ],
                "parameters": [
                    {
                        "name": "body",
                        "in": "body",
                        "description": "Permission that should be stored",
                        "required": false,
                        "schema": {
                            "$ref": "#/definitions/Permission"
                        }
                    }
                ],
                "responses": {
                    "200": {
                        "description": "successful operation",
                        "schema": {
                            "properties": {
                                "success": {
                                    "type": "boolean"
                                },
                                "data": {
                                    "$ref": "#/definitions/Permission"
                                },
                                "message": {
                                    "type": "string"
                                }
                            },
                            "type": "object"
                        }
                    }
                }
            }
        },
        "/admin/permissions/{id}": {
            "get": {
                "tags": [
                    "Permission"
                ],
                "summary": "Display the specified Permission",
                "description": "Get Permission",
                "produces": [
                    "application/json"
                ],
                "parameters": [
                    {
                        "name": "id",
                        "in": "path",
                        "description": "id of Permission",
                        "required": true,
                        "type": "integer"
                    }
                ],
                "responses": {
                    "200": {
                        "description": "successful operation",
                        "schema": {
                            "properties": {
                                "success": {
                                    "type": "boolean"
                                },
                                "data": {
                                    "$ref": "#/definitions/Permission"
                                },
                                "message": {
                                    "type": "string"
                                }
                            },
                            "type": "object"
                        }
                    }
                }
            },
            "put": {
                "tags": [
                    "Permission"
                ],
                "summary": "Update the specified Permission in storage",
                "description": "Update Permission",
                "produces": [
                    "application/json"
                ],
                "parameters": [
                    {
                        "name": "id",
                        "in": "path",
                        "description": "id of Permission",
                        "required": true,
                        "type": "integer"
                    },
                    {
                        "name": "body",
                        "in": "body",
                        "description": "Permission that should be updated",
                        "required": false,
                        "schema": {
                            "$ref": "#/definitions/Permission"
                        }
                    }
                ],
                "responses": {
                    "200": {
                        "description": "successful operation",
                        "schema": {
                            "properties": {
                                "success": {
                                    "type": "boolean"
                                },
                                "data": {
                                    "$ref": "#/definitions/Permission"
                                },
                                "message": {
                                    "type": "string"
                                }
                            },
                            "type": "object"
                        }
                    }
                }
            },
            "delete": {
                "tags": [
                    "Permission"
                ],
                "summary": "Remove the specified Permission from storage",
                "description": "Delete Permission",
                "produces": [
                    "application/json"
                ],
                "parameters": [
                    {
                        "name": "id",
                        "in": "path",
                        "description": "id of Permission",
                        "required": true,
                        "type": "integer"
                    }
                ],
                "responses": {
                    "200": {
                        "description": "successful operation",
                        "schema": {
                            "properties": {
                                "success": {
                                    "type": "boolean"
                                },
                                "data": {
                                    "type": "string"
                                },
                                "message": {
                                    "type": "string"
                                }
                            },
                            "type": "object"
                        }
                    }
                }
            }
        },
        "/admin/roles": {
            "get": {
                "tags": [
                    "Role"
                ],
                "summary": "Get a listing of the Roles.",
                "description": "Get all Roles",
                "produces": [
                    "application/json"
                ],
                "responses": {
                    "200": {
                        "description": "successful operation",
                        "schema": {
                            "properties": {
                                "success": {
                                    "type": "boolean"
                                },
                                "data": {
                                    "type": "array",
                                    "items": {
                                        "$ref": "#/definitions/Role"
                                    }
                                },
                                "message": {
                                    "type": "string"
                                }
                            },
                            "type": "object"
                        }
                    }
                }
            },
            "post": {
                "tags": [
                    "Role"
                ],
                "summary": "Store a newly created Role in storage",
                "description": "Store Role",
                "produces": [
                    "application/json"
                ],
                "parameters": [
                    {
                        "name": "body",
                        "in": "body",
                        "description": "Role that should be stored",
                        "required": false,
                        "schema": {
                            "$ref": "#/definitions/Role"
                        }
                    }
                ],
                "responses": {
                    "200": {
                        "description": "successful operation",
                        "schema": {
                            "properties": {
                                "success": {
                                    "type": "boolean"
                                },
                                "data": {
                                    "$ref": "#/definitions/Role"
                                },
                                "message": {
                                    "type": "string"
                                }
                            },
                            "type": "object"
                        }
                    }
                }
            }
        },
        "/admin/roles/{id}": {
            "get": {
                "tags": [
                    "Role"
                ],
                "summary": "Display the specified Role",
                "description": "Get Role",
                "produces": [
                    "application/json"
                ],
                "parameters": [
                    {
                        "name": "id",
                        "in": "path",
                        "description": "id of Role",
                        "required": true,
                        "type": "integer"
                    }
                ],
                "responses": {
                    "200": {
                        "description": "successful operation",
                        "schema": {
                            "properties": {
                                "success": {
                                    "type": "boolean"
                                },
                                "data": {
                                    "$ref": "#/definitions/Role"
                                },
                                "message": {
                                    "type": "string"
                                }
                            },
                            "type": "object"
                        }
                    }
                }
            },
            "put": {
                "tags": [
                    "Role"
                ],
                "summary": "Update the specified Role in storage",
                "description": "Update Role",
                "produces": [
                    "application/json"
                ],
                "parameters": [
                    {
                        "name": "id",
                        "in": "path",
                        "description": "id of Role",
                        "required": true,
                        "type": "integer"
                    },
                    {
                        "name": "body",
                        "in": "body",
                        "description": "Role that should be updated",
                        "required": false,
                        "schema": {
                            "$ref": "#/definitions/Role"
                        }
                    }
                ],
                "responses": {
                    "200": {
                        "description": "successful operation",
                        "schema": {
                            "properties": {
                                "success": {
                                    "type": "boolean"
                                },
                                "data": {
                                    "$ref": "#/definitions/Role"
                                },
                                "message": {
                                    "type": "string"
                                }
                            },
                            "type": "object"
                        }
                    }
                }
            },
            "delete": {
                "tags": [
                    "Role"
                ],
                "summary": "Remove the specified Role from storage",
                "description": "Delete Role",
                "produces": [
                    "application/json"
                ],
                "parameters": [
                    {
                        "name": "id",
                        "in": "path",
                        "description": "id of Role",
                        "required": true,
                        "type": "integer"
                    }
                ],
                "responses": {
                    "200": {
                        "description": "successful operation",
                        "schema": {
                            "properties": {
                                "success": {
                                    "type": "boolean"
                                },
                                "data": {
                                    "type": "string"
                                },
                                "message": {
                                    "type": "string"
                                }
                            },
                            "type": "object"
                        }
                    }
                }
            }
        },
        "/admin/users": {
            "get": {
                "tags": [
                    "User"
                ],
                "summary": "Get a listing of the Users.",
                "description": "Get all Users",
                "produces": [
                    "application/json"
                ],
                "responses": {
                    "200": {
                        "description": "successful operation",
                        "schema": {
                            "properties": {
                                "success": {
                                    "type": "boolean"
                                },
                                "data": {
                                    "type": "array",
                                    "items": {
                                        "$ref": "#/definitions/User"
                                    }
                                },
                                "message": {
                                    "type": "string"
                                }
                            },
                            "type": "object"
                        }
                    }
                }
            },
            "post": {
                "tags": [
                    "User"
                ],
                "summary": "Store a newly created User in storage",
                "description": "Store User",
                "produces": [
                    "application/json"
                ],
                "parameters": [
                    {
                        "name": "body",
                        "in": "body",
                        "description": "User that should be stored",
                        "required": false,
                        "schema": {
                            "$ref": "#/definitions/User"
                        }
                    }
                ],
                "responses": {
                    "200": {
                        "description": "successful operation",
                        "schema": {
                            "properties": {
                                "success": {
                                    "type": "boolean"
                                },
                                "data": {
                                    "$ref": "#/definitions/User"
                                },
                                "message": {
                                    "type": "string"
                                }
                            },
                            "type": "object"
                        }
                    }
                }
            }
        },
        "/admin/users/{id}": {
            "get": {
                "tags": [
                    "User"
                ],
                "summary": "Display the specified User",
                "description": "Get User",
                "produces": [
                    "application/json"
                ],
                "parameters": [
                    {
                        "name": "id",
                        "in": "path",
                        "description": "id of User",
                        "required": true,
                        "type": "integer"
                    }
                ],
                "responses": {
                    "200": {
                        "description": "successful operation",
                        "schema": {
                            "properties": {
                                "success": {
                                    "type": "boolean"
                                },
                                "data": {
                                    "$ref": "#/definitions/User"
                                },
                                "message": {
                                    "type": "string"
                                }
                            },
                            "type": "object"
                        }
                    }
                }
            },
            "put": {
                "tags": [
                    "User"
                ],
                "summary": "Update the specified User in storage",
                "description": "Update User",
                "produces": [
                    "application/json"
                ],
                "parameters": [
                    {
                        "name": "id",
                        "in": "path",
                        "description": "id of User",
                        "required": true,
                        "type": "integer"
                    },
                    {
                        "name": "body",
                        "in": "body",
                        "description": "User that should be updated",
                        "required": false,
                        "schema": {
                            "$ref": "#/definitions/User"
                        }
                    }
                ],
                "responses": {
                    "200": {
                        "description": "successful operation",
                        "schema": {
                            "properties": {
                                "success": {
                                    "type": "boolean"
                                },
                                "data": {
                                    "$ref": "#/definitions/User"
                                },
                                "message": {
                                    "type": "string"
                                }
                            },
                            "type": "object"
                        }
                    }
                }
            },
            "delete": {
                "tags": [
                    "User"
                ],
                "summary": "Remove the specified User from storage",
                "description": "Delete User",
                "produces": [
                    "application/json"
                ],
                "parameters": [
                    {
                        "name": "id",
                        "in": "path",
                        "description": "id of User",
                        "required": true,
                        "type": "integer"
                    }
                ],
                "responses": {
                    "200": {
                        "description": "successful operation",
                        "schema": {
                            "properties": {
                                "success": {
                                    "type": "boolean"
                                },
                                "data": {
                                    "type": "string"
                                },
                                "message": {
                                    "type": "string"
                                }
                            },
                            "type": "object"
                        }
                    }
                }
            }
        }
    },
    "definitions": {
        "Permission": {
            "required": [
                "name",
                "display_name"
            ],
            "properties": {
                "id": {
                    "description": "id",
                    "type": "integer",
                    "format": "int32"
                },
                "name": {
                    "description": "name",
                    "type": "string"
                },
                "display_name": {
                    "description": "display_name",
                    "type": "string"
                },
                "description": {
                    "description": "description",
                    "type": "string"
                },
                "created_at": {
                    "description": "created_at",
                    "type": "string",
                    "format": "date-time"
                },
                "updated_at": {
                    "description": "updated_at",
                    "type": "string",
                    "format": "date-time"
                }
            }
        },
        "Role": {
            "required": [
                "name",
                "display_name"
            ],
            "properties": {
                "id": {
                    "description": "id",
                    "type": "integer",
                    "format": "int32"
                },
                "name": {
                    "description": "name",
                    "type": "string"
                },
                "display_name": {
                    "description": "display_name",
                    "type": "string"
                },
                "description": {
                    "description": "description",
                    "type": "string"
                },
                "created_at": {
                    "description": "created_at",
                    "type": "string",
                    "format": "date-time"
                },
                "updated_at": {
                    "description": "updated_at",
                    "type": "string",
                    "format": "date-time"
                }
            }
        },
        "User": {
            "required": [
                "name",
                "username",
                "email",
                "password"
            ],
            "properties": {
                "id": {
                    "description": "id",
                    "type": "integer",
                    "format": "int32"
                },
                "name": {
                    "description": "name",
                    "type": "string"
                },
                "username": {
                    "description": "username",
                    "type": "string"
                },
                "email": {
                    "description": "email",
                    "type": "string"
                },
                "email_verified_at": {
                    "description": "email_verified_at",
                    "type": "string",
                    "format": "date-time"
                },
                "password": {
                    "description": "password",
                    "type": "string"
                },
                "remember_token": {
                    "description": "remember_token",
                    "type": "string"
                },
                "created_at": {
                    "description": "created_at",
                    "type": "string",
                    "format": "date-time"
                },
                "updated_at": {
                    "description": "updated_at",
                    "type": "string",
                    "format": "date-time"
                }
            }
        }
    },
    "securityDefinitions": {
        "passport-swaggervel_auth": {
            "type": "oauth2",
            "description": "OAuth2 grant provided by Laravel Passport",
            "flow": "password",
            "authorizationUrl": "http://komnatra.local/oauth/token",
            "tokenUrl": "http://komnatra.local/oauth/token",
            "scopes": {}
        }
    },
    "security": [
        {
            "passport-swaggervel_auth": [
                "*"
            ]
        }
    ]
}